Sesión 4
…
nivel: nivel escolar al que asiste el integrante del
hogar de 3 o más años

mm_esp: tiempo de espera en recibir atención
médica

Además, agreguemos la variable que corresponde a la entidad de la
República, que son los dos primeros dígitos del folio de la
vivienda.

datos2 <- datos[ , c("folioviv", "edad", "sexo", "cau_oir", "mm_esp")]
datos2$entidad <- substr(datos2$folioviv,1,2) 
datos2

# A tibble: 315,743 × 6
   folioviv    edad  sexo cau_oir mm_esp entidad
   <chr>      <dbl> <dbl> <chr>    <dbl> <chr>  
 1 0100013605    48     2 <NA>        20 01     
 2 0100013605    17     2 <NA>        30 01     
 3 0100013605    14     1 <NA>        30 01     
 4 0100013606    46     1 <NA>        15 01     
 5 0100013606    43     2 <NA>        30 01     
 6 0100013606    17     1 <NA>        30 01     
 7 0100013606    11     1 <NA>        15 01     
 8 0100017801    26     1 <NA>         0 01     
 9 0100017801    26     2 <NA>        NA 01     
10 0100017802    29     1 <NA>        10 01     
# … with 315,733 more rows
…
